@startgantt LifeCycle
title Project life cycle
scale 2

-- Design Phase --

[Project Creation] on {Committee of data} lasts 10 day and is colored in LightSteelBlue/Indigo

then [Functional design] on {Product owner} {Project Manager} lasts 15 day and is colored in LightGreen/LightCyan

[Use/Case Right validation] is colored in LightSeaGreen/DarkRed
[Use/Case Right validation] on {Data Management} lasts 7 day and starts at [Functional design]'s end

[Spec functional redaction] is colored in LightGreen/LightCyan
[Spec functional redaction] on {Product owner} lasts 10 day
[Spec functional redaction] starts 1 day after [Functional design]'s end

then [Planning redaction / Suivi] on {Project Manager} lasts 10 day and is colored in GhostWhite/Crimson

[Kick off] on {Product owner} {Project Manager} lasts 5 day and is colored in LightGreen/LightCyan
[Kick off] starts 1 day after [Planning redaction / Suivi]'s start

[Project Architecture] on {Data Architect} lasts 2 day and is colored in LightGrey/DeepSkyBlue and starts at [Planning redaction / Suivi]'s end

[Source Qualification] on {Qualif} lasts 3 day and starts at [Project Architecture]'s end
[Source Qualification] is colored in Orange/MediumSpringGreen

[Spec technique] is colored in LightGrey/DeepSkyBlue
[Spec technique] on {Data Engineer} {Data Architect} lasts 5 day and starts at [Source Qualification]'s end

-- Dev Phase --

[Development] is colored in LightGrey/DeepSkyBlue
[Development] on {Data Engineer} lasts 20 day
[Development] starts 1 day after [Spec technique]'s end

-- Qualification Phase --

then [Qualification] on {Qualif} lasts 10 day and is colored in Orange/MediumSpringGreen

-- Deployment Phase --

then [Deployment Pitch] on {Ops BAU}{Data Engineer}{Product owner} lasts 2 day and is colored in LightGrey/DeepSkyBlue
then [Deployment] on {Data Engineer} lasts 2 day and is colored in LightGrey/DeepSkyBlue
then [Suivi de prod] on {Ops BAU} lasts 2 day and is colored in LightGrey/DeepSkyBlue
@endgantt